  <svg width="137" height="76" xmlns="http://www.w3.org/2000/svg" version="1.1" id="SVGRoot" class="center" >
   <g transform="translate(10.000000, 10.000000)" stroke-width="6" >
    <path id="back1" 
    class="animate3"
          d="M0,0 L27.2861819,0 C41.4877862,-2.60879238e-15 53.8732222,9.65017907 57.3453825,23.4207878 L59.6546136,32.5792122 C63.126774,46.3498209 75.51221,56 89.7138143,56 L117,56"
          stroke="#D9DCE2"
          stroke-linecap="round"  
          fill="transparent" />
          <g id="strand1" stroke="#D9DCE2">
    <path id="strands1" class="strand-shrink animate1" d="M10,18.3125 L10,38.3125"  stroke-linecap="round"  fill="transparent" />
    <path id="strands1" class="strand-shrink animate1" d="M29,18.3125 L29,38.3125" stroke-linecap="round"  fill="transparent" />
    <path id="strands1" class="strand-shrink animate1" d="M88,18.3125 L88,38.3125"  stroke-linecap="round"  fill="transparent" />
    <path id="strands1" class="strand-shrink animate1" d="M108,18.3125 L108,38.3125" stroke-linecap="round"  fill="transparent" />
          </g>
    <path id="front1" 
    class="animate3"
          d="M0,56 L27.2841456,56 C41.4850709,56 53.8700972,46.350725 57.3429008,32.5809786 L59.6535953,23.4190214 C63.1263989,9.64927503 75.5114252,1.07949094e-13 89.7123505,6.75015599e-14 L117,0"
          stroke="#D9DCE2"       
          stroke-linecap="round"  
          fill="transparent" />
    </g>
    
    
    
    
  </svg>
